GET /some-index/_search
{
  "size": 0,
  "aggs": {
    "my_buckets": {
      "composite": {
        "sources": [
          { "product_name": { "terms": { "field": "product", "missing_bucket": true } } }
        ]
      }
    }
  }
}
