GET /some-index/_search
{
  "size": 0,
  "aggs": {
    "my_buckets": {
      "composite": {
        "sources": [
          { "histo": { "histogram": { "field": "price", "interval": 5 } } }
        ]
      }
    }
  }
}
