GET /logs/_search
{
  "size": 0,
  "aggs" : {
    "messages" : {
      "filters" : {
        "filters" : {
          "errors" :   { "match" : { "body" : "error"   }},
          "warnings" : { "match" : { "body" : "warning" }}
        }
      }
    }
  }
}
