GET /some-index/_search
{
  "size": 0,
  "aggs": {
    "my_buckets": {
      "composite": {
        "sources": [
          { "shop": { "terms": { "field": "shop" } } },
          { "product": { "terms": { "field": "product" } } },
          { "date": { "date_histogram": { "field": "timestamp", "calendar_interval": "1d" } } }
        ]
      }
    }
  }
}
